ISSS608-VAA - Take home Exercise 1
…
Show the code

  #Remove duplicate rows based on all columns:
  Participants %>% distinct()

# A tibble: 1,011 × 7
   participantId householdSize haveKids   age educationLevel      interestGroup
           <int>         <int> <lgl>    <int> <fct>               <chr>        
 1             0             3 TRUE        36 HighSchoolOrCollege H            
 2             1             3 TRUE        25 HighSchoolOrCollege B            
 3             2             3 TRUE        35 HighSchoolOrCollege A            
 4             3             3 TRUE        21 HighSchoolOrCollege I            
 5             4             3 TRUE        43 Bachelors           H            
 6             5             3 TRUE        32 HighSchoolOrCollege D            
 7             6             3 TRUE        26 HighSchoolOrCollege I            
 8             7             3 TRUE        27 Bachelors           A            
 9             8             3 TRUE        20 Bachelors           G            
10             9             3 TRUE        35 Bachelors           D            
# ℹ 1,001 more rows
# ℹ 1 more variable: joviality <dbl>
…
There’s no missing data in FinancialJournal dataset. But there seems some duplicate records in FinancialJournal. Proceed to remove duplicates using distinct() function:

Show the code

  #display duplicate count for each row
  #FinancialJournal %>%
  #add_count(participantId,timestamp, category, amount) %>%
  #filter(n>1) %>%
  #distinct()

  FinancialJournal %>% distinct()

# A tibble: 1,512,523 × 5
   participantId timestamp           category  amount date      
           <int> <dttm>              <fct>      <dbl> <date>    
 1             0 2022-03-01 00:00:00 Wage      2473.  2022-03-01
 2             0 2022-03-01 00:00:00 Shelter   -555.  2022-03-01
 3             0 2022-03-01 00:00:00 Education  -38.0 2022-03-01
 4             1 2022-03-01 00:00:00 Wage      2047.  2022-03-01
 5             1 2022-03-01 00:00:00 Shelter   -555.  2022-03-01
 6             1 2022-03-01 00:00:00 Education  -38.0 2022-03-01
 7             2 2022-03-01 00:00:00 Wage      2437.  2022-03-01
 8             2 2022-03-01 00:00:00 Shelter   -557.  2022-03-01
 9             2 2022-03-01 00:00:00 Education  -12.8 2022-03-01
10             3 2022-03-01 00:00:00 Wage      2367.  2022-03-01
# ℹ 1,512,513 more rows
…
