ISSS608-VAA - TakeHomeEx3
…
In order to find the business group, we will check the type of different category of data. There might be owner - business, customer - business, business - business relationship

Text sensing with tidytext

word count

  #start a bit of text sensing
  MC3_nodes_clean 

# A tibble: 27,622 × 5
   id                                 country type  revenue_omu product_services
   <chr>                              <chr>   <chr>       <dbl> <chr>           
 1 Jones LLC                          ZH      Comp…  310612303. Automobiles     
 2 Coleman, Hall and Lopez            ZH      Comp…  162734684. Passenger cars,…
 3 Aqua Advancements Sashimi SE Expr… Oceanus Comp…  115004667. Holding firm wh…
 4 Makumba Ltd. Liability Co          Utopor… Comp…   90986413. Car service, ca…
 5 Taylor, Taylor and Farrell         ZH      Comp…   81466667. Fully electric …
 6 Harmon, Edwards and Bates          ZH      Comp…   75070435. Discount superm…
 7 Punjab s Marine conservation       Riodel… Comp…   72167572. Beef, pork, chi…
 8 Assam   Limited Liability Company  Utopor… Comp…   72162317. Power and Gas s…
 9 Ianira Starfish Sagl Import        Rio Is… Comp…   68832979. Light commercia…
10 Moran, Lewis and Jimenez           ZH      Comp…   65592906. Automobiles, tr…
# ℹ 27,612 more rows
…
