ISSS608-VAA - TakehomEx2
…
  MC1_edges <- as.tibble(MC1$links) %>% 
  select (source, target, type, weight, key)

  MC2<- fromJSON("data/mc2_challenge_graph.json")

Cleaning data for nodes

  #| code-fold: true
  #| code-summary: "Show code"
 
    #to check data table
    head(MC1_nodes, n = 30)

# A tibble: 30 × 3
   id                         type         country 
   <chr>                      <chr>        <chr>   
 1 Spanish Shrimp  Carriers   company      Nalakond
 2 12744                      organization <NA>    
 3 143129355                  organization <NA>    
 4 7775                       organization <NA>    
 5 1017141                    organization <NA>    
 6 2591586                    organization <NA>    
 7 185040354                  organization <NA>    
 8 Faroe Islands Shrimp Shark company      Rio Isla
 9 341411                     organization <NA>    
10 21323516                   organization <NA>    
# ℹ 20 more rows
…
Cleaning data for edges

  #| code-fold: true
  #| code-summary: "Show code"
 
    #to check data table
    head(MC1_edges, n = 30)

# A tibble: 30 × 5
   source                   target                       type       weight   key
   <chr>                    <chr>                        <chr>       <dbl> <int>
 1 Spanish Shrimp  Carriers 12744                        ownership   0.900     0
 2 Spanish Shrimp  Carriers 21323516                     partnersh…  0.846     0
 3 Spanish Shrimp  Carriers 290834957                    partnersh…  0.965     0
 4 Spanish Shrimp  Carriers 3506021                      ownership   0.964     0
 5 Spanish Shrimp  Carriers Conventionâ                  family_re…  0.823     0
 6 Spanish Shrimp  Carriers 2262                         family_re…  0.893     0
 7 Spanish Shrimp  Carriers Ashley Davis                 family_re…  0.839     0
 8 Spanish Shrimp  Carriers 924                          family_re…  0.885     0
 9 Spanish Shrimp  Carriers 95                           family_re…  0.887     0
10 Spanish Shrimp  Carriers Ancla Azul Company Solutions membership  0.899     0
# ℹ 20 more rows
…
