ISSS608-VAA - In-Class_Ex05
…
Show the code

  MC2<- fromJSON("data/mc2_challenge_graph.json")

Cleaning data for nodes

Show the code

  #| code-fold: true
  #| code-summary: "Show code"
 
    #to check data table
    head(MC1_nodes, n = 30)

# A tibble: 30 × 3
   id                         type         country 
   <chr>                      <chr>        <chr>   
 1 Spanish Shrimp  Carriers   company      Nalakond
 2 12744                      organization <NA>    
 3 143129355                  organization <NA>    
 4 7775                       organization <NA>    
 5 1017141                    organization <NA>    
 6 2591586                    organization <NA>    
 7 185040354                  organization <NA>    
 8 Faroe Islands Shrimp Shark company      Rio Isla
 9 341411                     organization <NA>    
10 21323516                   organization <NA>    
# ℹ 20 more rows
…
Cleaning data for edges

Show the code

  #| code-fold: true
  #| code-summary: "Show code"
 
    #to check data table
    head(MC1_edges, n = 30)

# A tibble: 30 × 5
   source                   target                       type       weight   key
   <chr>                    <chr>                        <chr>       <dbl> <int>
 1 Spanish Shrimp  Carriers 12744                        ownership   0.900     0
 2 Spanish Shrimp  Carriers 21323516                     partnersh…  0.846     0
 3 Spanish Shrimp  Carriers 290834957                    partnersh…  0.965     0
 4 Spanish Shrimp  Carriers 3506021                      ownership   0.964     0
 5 Spanish Shrimp  Carriers Conventionâ                  family_re…  0.823     0
 6 Spanish Shrimp  Carriers 2262                         family_re…  0.893     0
 7 Spanish Shrimp  Carriers Ashley Davis                 family_re…  0.839     0
 8 Spanish Shrimp  Carriers 924                          family_re…  0.885     0
 9 Spanish Shrimp  Carriers 95                           family_re…  0.887     0
10 Spanish Shrimp  Carriers Ancla Azul Company Solutions membership  0.899     0
# ℹ 20 more rows
…
(Planning: Display entities relationship as we focused (graph network))

Show the code

peopleEntityRelationship <- tbl_graph(nodes = MC1_nodes_cleaned,
                           edges = MC1_edges_cleaned,
                           directed = TRUE)

  peopleEntityRelationship

# A tbl_graph: 2721 nodes and 6490 edges
#
# A bipartite multigraph with 204 components
#
# A tibble: 2,721 × 3
  id                       type         country 
  <chr>                    <chr>        <chr>   
1 Spanish Shrimp  Carriers company      Nalakond
2 12744                    organization <NA>    
3 143129355                organization <NA>    
4 7775                     organization <NA>    
5 1017141                  organization <NA>    
6 2591586                  organization <NA>    
# ℹ 2,715 more rows
#
# A tibble: 6,490 × 5
   from    to type        weight   key
  <int> <int> <chr>        <dbl> <int>
1     1     2 ownership    0.900     0
2     1    10 partnership  0.846     0
3     1    49 partnership  0.965     0
# ℹ 6,487 more rows

Show the code

  peopleEntityRelationship %>%
  activate(edges) %>%
  arrange(desc(weight))

# A tbl_graph: 2721 nodes and 6490 edges
#
# A bipartite multigraph with 204 components
#
# A tibble: 6,490 × 5
   from    to type                weight   key
  <int> <int> <chr>                <dbl> <int>
1  1186     3 partnership          0.987     0
2   912  1345 ownership            0.986     0
3  1696  2009 membership           0.985     0
4  1397   748 family_relationship  0.984     0
5   341     3 partnership          0.984     0
6  2035  2032 partnership          0.983     0
# ℹ 6,484 more rows
#
# A tibble: 2,721 × 3
  id                       type         country 
  <chr>                    <chr>        <chr>   
1 Spanish Shrimp  Carriers company      Nalakond
2 12744                    organization <NA>    
3 143129355                organization <NA>    
# ℹ 2,718 more rows
…
